{
  "project_info": {
    "project_number": "658277287673",
    "firebase_url": "https://wejob-5730b.firebaseio.com",
    "project_id": "wejob-5730b",
    "storage_bucket": "wejob-5730b.appspot.com"
  },
  "client": [
    {
      "client_info": {
        "mobilesdk_app_id": "1:658277287673:android:8e95bb426bea139d",
        "android_client_info": {
          "package_name": "com.wejob"
        }
      },
      "oauth_client": [
        {
          "client_id": "658277287673-fmb9mrbt6m10nb4hg8dieikaeq243knj.apps.googleusercontent.com",
          "client_type": 3
        }
      ],
      "api_key": [
        {
          "current_key": "AIzaSyAqu1_rqOL7ciejpPa0kPuvFCQ-BfXaqzA"
        }
      ],
      "services": {
        "analytics_service": {
          "status": 1
        },
        "appinvite_service": {
          "status": 1,
          "other_platform_oauth_client": []
        },
        "ads_service": {
          "status": 2
        }
      }
    }
  ],
  "configuration_version": "1"
}